{
  "kind": "Template",
  "apiVersion": "v1",
  "metadata": {
    "name": "my-sample-springboot-app",
    "annotations": {
      "iconClass": "icon-jboss",
      "description": "Application using spring boot s2i and nginx"
    }
  },
  "labels": {
    "application": "my-sample-springboot-app",
    "createdBy": "my-sample-springboot-app-template"
  },
  "parameters": [
    {
      "description": "The name for the Web application.",
      "displayName": "Sample App",
      "name": "WEB_APPLICATION_NAME",
      "value": "webmaps",
      "required": true
    },
    {
      "description": "The name for the MLBParks application.",
      "displayName": "MLBParks app",
      "name": "MLBPARKS_APPLICATION_NAME",
      "value": "mlbparks",
      "required": true
    },
    {
      "description": "The name for the mongodb application.",
      "displayName": "Mongodb App",
      "name": "MONGODB_APPLICATION_NAME",
      "value": "mongodb",
      "required": true
    },
    {
      "description": "Custom hostname for the main Web application.  Leave blank for default hostname, e.g.: <application-name>.<project>.<default-domain-suffix>",
      "displayName": "Web app route",
      "name": "WEB_APPLICATION_HOSTNAME"
    },
    {
      "description": "Git source URI for application",
      "displayName": "Git source repository",
      "name": "GIT_URI",
      "value": "https://github.com/jorgemoralespou/ose3-parks.git",
      "required": true
    },
    {
      "description": "Git branch/tag reference",
      "displayName": "Git branch/tag reference",
      "name": "GIT_REF",
      "value": "master",
      "required": true
    },
    {
      "description": "Maven mirror url. If nexus is deployed locally, use nexus url (e.g. http://nexus.ci.apps.10.2.2.2.xip.io/content/groups/public/)",
      "displayName": "Maven mirror url",
      "name": "MAVEN_MIRROR_URL",
      "required": false
    },
    {
      "description": "Database name",
      "displayName": "Database name",
      "name": "MONGODB_DATABASE",
      "value": "mongodb",
      "required": true
    },
    {
      "description": "Disable data file preallocation.",
      "name": "MONGODB_NOPREALLOC"
    },
    {
      "description": "Set MongoDB to use a smaller default data file size.",
      "name": "MONGODB_SMALLFILES"
    },
    {
      "description": "Runs MongoDB in a quiet mode that attempts to limit the amount of output.",
      "name": "MONGODB_QUIET"
    },
    {
      "description": "Database user name",
      "displayName": "Database user name",
      "name": "MONGODB_USER",
      "from": "user[a-zA-Z0-9]{3}",
      "generate": "expression",
      "required": true
    },
    {
      "description": "Database user password",
      "displayName": "Database user password",
      "name": "MONGODB_PASSWORD",
      "from": "[a-zA-Z0-9]{8}",
      "generate": "expression",
      "required": true
    },
    {
      "description": "Database admin password",
      "displayName": "Database admin password",
      "name": "MONGODB_ADMIN_PASSWORD",
      "from": "[a-zA-Z0-9]{8}",
      "generate": "expression",
      "required": true
    },
    {
      "description": "Github trigger secret",
      "displayName": "GitHub Trigger",
      "name": "GITHUB_TRIGGER_SECRET",
      "from": "[a-zA-Z0-9]{8}",
      "generate": "expression",
      "required": true
    },
    {
      "description": "Generic build trigger secret",
      "displayName": "Generic Trigger",
      "name": "GENERIC_TRIGGER_SECRET",
      "from": "[a-zA-Z0-9]{8}",
      "generate": "expression",
      "required": true
    }
  ],
  "objects": [
    {
      "kind": "ConfigMap",
      "apiVersion": "v1",
      "metadata": {
        "name": "parks",
        "labels": {
          "component": "config"
        }
      },
      "data": {
        "sampletext": "Using ConfigMaps in Spring cloud for Kubernetes",
        "db.user": "${MONGODB_USER}",
        "db.password": "${MONGODB_PASSWORD}",
        "db.name": "${MONGODB_DATABASE}",
        "db.properties": "db.user=${MONGODB_USER}\ndb.password=${MONGODB_PASSWORD}\ndb.name=${MONGODB_DATABASE}",
        "application.properties": "spring.data.mongodb.uri=mongodb://${MONGODB_USER}:${MONGODB_PASSWORD}@${MONGODB_APPLICATION_NAME}:27017/${MONGODB_DATABASE}"
      }
    },
    {
      "kind": "ImageStream",
      "apiVersion": "v1",
      "metadata": {
        "name": "s2i-java"
      },
      "spec": {
        "tags": [
          {
            "name": "latest",
            "from": {
              "kind": "DockerImage",
              "name": "jorgemoralespou/s2i-java"
            }
          }
        ]
      }
    },
    {
      "kind": "Service",
      "apiVersion": "v1",
      "metadata": {
        "name": "${MONGODB_APPLICATION_NAME}",
        "labels": {
          "component": "${MONGODB_APPLICATION_NAME}"
        }
      },
      "spec": {
        "ports": [
          {
            "name": "mongo",
            "protocol": "TCP",
            "port": 27017,
            "targetPort": 27017
          }
        ],
        "selector": {
          "name": "${MONGODB_APPLICATION_NAME}"
        },
        "type": "ClusterIP",
        "sessionAffinity": "None"
      }
    },
    {
      "kind": "DeploymentConfig",
      "apiVersion": "v1",
      "metadata": {
        "name": "${MONGODB_APPLICATION_NAME}",
        "labels": {
          "component": "${MONGODB_APPLICATION_NAME}"
        }
      },
      "spec": {
        "strategy": {
          "type": "Recreate",
          "recreateParams": {
            "timeoutSeconds": 600
          },
          "resources": {}
        },
        "triggers": [
          {
            "type": "ImageChange",
            "imageChangeParams": {
              "automatic": true,
              "containerNames": [
                "${MONGODB_APPLICATION_NAME}"
              ],
              "from": {
                "kind": "ImageStreamTag",
                "namespace": "openshift",
                "name": "mongodb:3.2"
              }
            }
          },
          {
            "type": "ConfigChange"
          }
        ],
        "replicas": 1,
        "test": false,
        "selector": {
          "name": "${MONGODB_APPLICATION_NAME}"
        },
        "template": {
          "metadata": {
            "labels": {
              "name": "${MONGODB_APPLICATION_NAME}"
            }
          },
          "spec": {
            "volumes": [
              {
                "name": "mongodb-data",
                "emptyDir": {}
              }
            ],
            "containers": [
              {
                "name": "${MONGODB_APPLICATION_NAME}",
                "image": "${MONGODB_APPLICATION_NAME}",
                "ports": [
                  {
                    "containerPort": 27017,
                    "protocol": "TCP"
                  }
                ],
                "env": [
                  {
                    "name": "KUBERNETES_NAMESPACE",
                    "valueFrom": {
                      "fieldRef": {
                        "fieldPath": "metadata.namespace"
                      }
                    }
                  },
                  {
                    "name": "MONGODB_USER",
                    "valueFrom": {
                      "configMapKeyRef": {
                        "name": "parks",
                        "key": "db.user"
                      }
                    }
                  },
                  {
                    "name": "MONGODB_PASSWORD",
                    "valueFrom": {
                      "configMapKeyRef": {
                        "name": "parks",
                        "key": "db.password"
                      }
                    }
                  },
                  {
                    "name": "MONGODB_DATABASE",
                    "valueFrom": {
                      "configMapKeyRef": {
                        "name": "parks",
                        "key": "db.name"
                      }
                    }
                  },
                  {
                    "name": "MONGODB_ADMIN_PASSWORD",
                    "value": "${MONGODB_ADMIN_USER}"
                  }
                ],
                "resources": {
                  "limits": {
                    "memory": "512Mi"
                  }
                },
                "volumeMounts": [
                  {
                    "name": "mongodb-data",
                    "mountPath": "/var/lib/mongodb/data"
                  }
                ],
                "livenessProbe": {
                  "tcpSocket": {
                    "port": 27017
                  },
                  "initialDelaySeconds": 30,
                  "timeoutSeconds": 1,
                  "periodSeconds": 10,
                  "successThreshold": 1,
                  "failureThreshold": 3
                },
                "readinessProbe": {
                  "exec": {
                    "command": [
                      "/bin/sh",
                      "-i",
                      "-c",
                      "mongo 127.0.0.1:27017/$MONGODB_DATABASE -u $MONGODB_USER -p $MONGODB_PASSWORD --eval=\"quit()\""
                    ]
                  },
                  "initialDelaySeconds": 3,
                  "timeoutSeconds": 1,
                  "periodSeconds": 10,
                  "successThreshold": 1,
                  "failureThreshold": 3
                },
                "terminationMessagePath": "/dev/termination-log",
                "imagePullPolicy": "IfNotPresent",
                "securityContext": {
                  "capabilities": {},
                  "privileged": false
                }
              }
            ],
            "restartPolicy": "Always",
            "terminationGracePeriodSeconds": 30,
            "dnsPolicy": "ClusterFirst",
            "securityContext": {}
          }
        }
      }
    },
    {
      "kind": "ImageStream",
      "apiVersion": "v1",
      "metadata": {
        "name": "${WEB_APPLICATION_NAME}"
      },
      "spec": {
        "tags": [
          {
            "name": "latest"
          }
        ]
      }
    },
    {
      "kind": "BuildConfig",
      "apiVersion": "v1",
      "metadata": {
        "name": "${WEB_APPLICATION_NAME}",
        "labels": {
          "build": "${WEB_APPLICATION_NAME}"
        }
      },
      "spec": {
        "triggers": [
          {
            "type": "GitHub",
            "github": {
              "secret": "${GITHUB_TRIGGER_SECRET}"
            }
          },
          {
            "type": "Generic",
            "generic": {
              "secret": "${GENERIC_TRIGGER_SECRET}"
            }
          },
          {
            "type": "ConfigChange"
          },
          {
            "type": "ImageChange"
          }
        ],
        "runPolicy": "Serial",
        "source": {
          "type": "Git",
          "git": {
            "uri": "${GIT_URI}",
            "ref": "${GIT_REF}"
          },
          "contextDir": "web-parksmap"
        },
        "strategy": {
          "type": "Source",
          "sourceStrategy": {
            "from": {
              "kind": "ImageStreamTag",
              "name": "s2i-java:latest"
            },
            "env": [
              {
                "name": "MAVEN_ARGS",
                "value": "clean install spring-boot:repackage -DskipTests -Dcom.redhat.xpaas.repo.redhatga"
              },
              {
                "name": "MAVEN_MIRROR_URL",
                "value": "${MAVEN_MIRROR_URL}"
              }
            ],
            "incremental": true
          }
        },
        "output": {
          "to": {
            "kind": "ImageStreamTag",
            "name": "${WEB_APPLICATION_NAME}:latest"
          }
        },
        "resources": {},
        "postCommit": {}
      }
    },
    {
      "kind": "DeploymentConfig",
      "apiVersion": "v1",
      "metadata": {
        "name": "${WEB_APPLICATION_NAME}",
        "labels": {
          "component": "${WEB_APPLICATION_NAME}"
        }
      },
      "spec": {
        "strategy": {
          "type": "Rolling",
          "rollingParams": {
            "updatePeriodSeconds": 1,
            "intervalSeconds": 1,
            "timeoutSeconds": 600,
            "maxUnavailable": "25%",
            "maxSurge": "25%"
          },
          "resources": {}
        },
        "triggers": [
          {
            "type": "ConfigChange"
          },
          {
            "type": "ImageChange",
            "imageChangeParams": {
              "automatic": true,
              "containerNames": [
                "${WEB_APPLICATION_NAME}"
              ],
              "from": {
                "kind": "ImageStreamTag",
                "name": "${WEB_APPLICATION_NAME}:latest"
              }
            }
          }
        ],
        "replicas": 1,
        "test": false,
        "selector": {
          "component": "${WEB_APPLICATION_NAME}"
        },
        "template": {
          "metadata": {
            "labels": {
              "component": "${WEB_APPLICATION_NAME}"
            }
          },
          "spec": {
            "containers": [
              {
                "name": "${WEB_APPLICATION_NAME}",
                "image": "${WEB_APPLICATION_NAME}",
                "ports": [
                  {
                    "containerPort": 8080,
                    "protocol": "TCP"
                  }
                ],
                "env": [
                  {
                    "name": "KUBERNETES_NAMESPACE",
                    "valueFrom": {
                      "fieldRef": {
                        "fieldPath": "metadata.namespace"
                      }
                    }
                  }
                ],
                "resources": {},
                "livenessProbe": {
                  "httpGet": {
                    "path": "/health.jsp",
                    "port": 8080,
                    "scheme": "HTTP"
                  },
                  "initialDelaySeconds": 120,
                  "timeoutSeconds": 1,
                  "periodSeconds": 10,
                  "successThreshold": 1,
                  "failureThreshold": 3
                },
                "readinessProbe": {
                  "httpGet": {
                    "path": "/health.jsp",
                    "port": 8080,
                    "scheme": "HTTP"
                  },
                  "initialDelaySeconds": 20,
                  "timeoutSeconds": 1,
                  "periodSeconds": 10,
                  "successThreshold": 1,
                  "failureThreshold": 3
                },
                "terminationMessagePath": "/dev/termination-log",
                "imagePullPolicy": "IfNotPresent"
              }
            ],
            "restartPolicy": "Always",
            "terminationGracePeriodSeconds": 30,
            "dnsPolicy": "ClusterFirst",
            "securityContext": {}
          }
        }
      }
    },
    {
      "kind": "Service",
      "apiVersion": "v1",
      "metadata": {
        "name": "${WEB_APPLICATION_NAME}",
        "labels": {
          "component": "${WEB_APPLICATION_NAME}"
        },
        "annotations": {
          "service.alpha.openshift.io/dependencies": "[{\"name\":\"${MLBPARKS_APPLICATION_NAME}\",\"namespace\":\"\",\"kind\":\"Service\"},{\"name\":\"${MONGODB_APPLICATION_NAME}\",\"namespace\":\"\",\"kind\":\"Service\"}]"
        }
      },
      "spec": {
        "ports": [
          {
            "name": "8080-tcp",
            "protocol": "TCP",
            "port": 8080,
            "targetPort": 8080
          }
        ],
        "selector": {
          "component": "${WEB_APPLICATION_NAME}"
        },
        "type": "ClusterIP",
        "sessionAffinity": "None"
      }
    },
    {
      "kind": "Route",
      "apiVersion": "v1",
      "metadata": {
        "name": "${WEB_APPLICATION_NAME}",
        "labels": {
          "component": "${WEB_APPLICATION_NAME}"
        }
      },
      "spec": {
        "host": "${WEB_APPLICATION_HOSTNAME}",
        "to": {
          "kind": "Service",
          "name": "${WEB_APPLICATION_NAME}",
          "weight": 100
        },
        "port": {
          "targetPort": "8080-tcp"
        }
      }
    },
    {
      "kind": "ImageStream",
      "apiVersion": "v1",
      "metadata": {
        "name": "${MLBPARKS_APPLICATION_NAME}"
      },
      "spec": {
        "tags": [
          {
            "name": "latest"
          }
        ]
      }
    },
    {
      "kind": "BuildConfig",
      "apiVersion": "v1",
      "metadata": {
        "name": "${MLBPARKS_APPLICATION_NAME}",
        "labels": {
          "build": "${MLBPARKS_APPLICATION_NAME}"
        }
      },
      "spec": {
        "triggers": [
          {
            "type": "GitHub",
            "github": {
              "secret": "${GITHUB_TRIGGER_SECRET}"
            }
          },
          {
            "type": "Generic",
            "generic": {
              "secret": "${GENERIC_TRIGGER_SECRET}"
            }
          },
          {
            "type": "ConfigChange"
          },
          {
            "type": "ImageChange"
          }
        ],
        "runPolicy": "Serial",
        "source": {
          "type": "Git",
          "git": {
            "uri": "${GIT_URI}",
            "ref": "${GIT_REF}"
          },
          "contextDir": "mlbparks-mongo"
        },
        "strategy": {
          "type": "Source",
          "sourceStrategy": {
            "from": {
              "kind": "ImageStreamTag",
              "namespace": "openshift",
              "name": "wildfly:latest"
            },
            "env": [
              {
                "name": "MAVEN_ARGS",
                "value": "clean package -Popenshift -DskipTests -Dcom.redhat.xpaas.repo.redhatga"
              },
              {
                "name": "MAVEN_MIRROR_URL",
                "value": "${MAVEN_MIRROR_URL}"
              }
            ],
            "incremental": true
          }
        },
        "output": {
          "to": {
            "kind": "ImageStreamTag",
            "name": "${MLBPARKS_APPLICATION_NAME}:latest"
          }
        },
        "resources": {},
        "postCommit": {}
      }
    },
    {
      "kind": "DeploymentConfig",
      "apiVersion": "v1",
      "metadata": {
        "name": "${MLBPARKS_APPLICATION_NAME}",
        "labels": {
          "component": "${MLBPARKS_APPLICATION_NAME}"
        }
      },
      "spec": {
        "strategy": {
          "type": "Rolling",
          "rollingParams": {
            "updatePeriodSeconds": 1,
            "intervalSeconds": 1,
            "timeoutSeconds": 600,
            "maxUnavailable": "25%",
            "maxSurge": "25%",
            "post": {
              "failurePolicy": "Retry",
              "execNewPod": {
                "command": [
                  "curl",
                  "http://${MLBPARKS_APPLICATION_NAME}:8080/ws/data/load"
                ],
                "containerName": "${MLBPARKS_APPLICATION_NAME}"
              }
            }
          },
          "resources": {}
        },
        "triggers": [
          {
            "type": "ConfigChange"
          },
          {
            "type": "ImageChange",
            "imageChangeParams": {
              "automatic": true,
              "containerNames": [
                "${MLBPARKS_APPLICATION_NAME}"
              ],
              "from": {
                "kind": "ImageStreamTag",
                "name": "${MLBPARKS_APPLICATION_NAME}:latest"
              }
            }
          }
        ],
        "replicas": 1,
        "test": false,
        "selector": {
          "component": "${MLBPARKS_APPLICATION_NAME}"
        },
        "template": {
          "metadata": {
            "labels": {
              "component": "${MLBPARKS_APPLICATION_NAME}"
            }
          },
          "spec": {
            "containers": [
              {
                "name": "${MLBPARKS_APPLICATION_NAME}",
                "image": "${MLBPARKS_APPLICATION_NAME}",
                "ports": [
                  {
                    "containerPort": 8080,
                    "protocol": "TCP"
                  }
                ],
                "env": [
                  {
                    "name": "KUBERNETES_NAMESPACE",
                    "valueFrom": {
                      "fieldRef": {
                        "fieldPath": "metadata.namespace"
                      }
                    }
                  },
                  {
                    "name": "DB_HOST",
                    "value": "${MONGODB_APPLICATION_NAME}"
                  },
                  {
                    "name": "DB_PORT",
                    "value": "27017"
                  },
                  {
                    "name": "DB_USERNAME",
                    "valueFrom": {
                      "configMapKeyRef": {
                        "name": "parks",
                        "key": "db.user"
                      }
                    }
                  },
                  {
                    "name": "DB_PASSWORD",
                    "valueFrom": {
                      "configMapKeyRef": {
                        "name": "parks",
                        "key": "db.password"
                      }
                    }
                  },
                  {
                    "name": "DB_NAME",
                    "valueFrom": {
                      "configMapKeyRef": {
                        "name": "parks",
                        "key": "db.name"
                      }
                    }
                  }
                ],
                "resources": {},
                "livenessProbe": {
                  "httpGet": {
                    "path": "/ws/healthz",
                    "port": 8080,
                    "scheme": "HTTP"
                  },
                  "initialDelaySeconds": 120,
                  "timeoutSeconds": 1,
                  "periodSeconds": 10,
                  "successThreshold": 1,
                  "failureThreshold": 3
                },
                "readinessProbe": {
                  "httpGet": {
                    "path": "/ws/healthz",
                    "port": 8080,
                    "scheme": "HTTP"
                  },
                  "initialDelaySeconds": 20,
                  "timeoutSeconds": 1,
                  "periodSeconds": 10,
                  "successThreshold": 1,
                  "failureThreshold": 3
                },
                "terminationMessagePath": "/dev/termination-log",
                "imagePullPolicy": "IfNotPresent"
              }
            ],
            "restartPolicy": "Always",
            "terminationGracePeriodSeconds": 30,
            "dnsPolicy": "ClusterFirst",
            "securityContext": {}
          }
        }
      }
    },
    {
      "kind": "Service",
      "apiVersion": "v1",
      "metadata": {
        "name": "${MLBPARKS_APPLICATION_NAME}",
        "labels": {
          "component": "${MLBPARKS_APPLICATION_NAME}"
        }
      },
      "spec": {
        "ports": [
          {
            "name": "8080-tcp",
            "protocol": "TCP",
            "port": 8080,
            "targetPort": 8080
          }
        ],
        "selector": {
          "component": "${MLBPARKS_APPLICATION_NAME}"
        },
        "type": "ClusterIP",
        "sessionAffinity": "None"
      }
    },
    {
      "kind": "Route",
      "apiVersion": "v1",
      "metadata": {
        "name": "${MLBPARKS_APPLICATION_NAME}",
        "labels": {
          "component": "${MLBPARKS_APPLICATION_NAME}"
        }
      },
      "spec": {
        "host": "",
        "to": {
          "kind": "Service",
          "name": "${MLBPARKS_APPLICATION_NAME}",
          "weight": 100
        },
        "port": {
          "targetPort": "8080-tcp"
        }
      }
    }
  ]
}
